%YAML 1.1
%TAG !u! tag:unity3d.com,2011:
--- !u!1 &4444575914158168854
GameObject:
  m_ObjectHideFlags: 0
  m_CorrespondingSourceObject: {fileID: 0}
  m_PrefabInstance: {fileID: 0}
  m_PrefabAsset: {fileID: 0}
  serializedVersion: 6
  m_Component:
  - component: {fileID: 3906048948151827204}
  - component: {fileID: 8850509674062421506}
  m_Layer: 9
  m_Name: city1_hammer
  m_TagString: Player
  m_Icon: {fileID: 0}
  m_NavMeshLayer: 0
  m_StaticEditorFlags: 2
  m_IsActive: 0
--- !u!4 &3906048948151827204
Transform:
  m_ObjectHideFlags: 0
  m_CorrespondingSourceObject: {fileID: 0}
  m_PrefabInstance: {fileID: 0}
  m_PrefabAsset: {fileID: 0}
  m_GameObject: {fileID: 4444575914158168854}
  m_LocalRotation: {x: 0, y: 0, z: 0, w: 1}
  m_LocalPosition: {x: 0, y: 0, z: 0}
  m_LocalScale: {x: 1, y: 1, z: 1}
  m_Children:
  - {fileID: 7992375104000553653}
  m_Father: {fileID: 0}
  m_RootOrder: 0
  m_LocalEulerAnglesHint: {x: 0, y: 0, z: 0}
--- !u!114 &8850509674062421506
MonoBehaviour:
  m_ObjectHideFlags: 0
  m_CorrespondingSourceObject: {fileID: 0}
  m_PrefabInstance: {fileID: 0}
  m_PrefabAsset: {fileID: 0}
  m_GameObject: {fileID: 4444575914158168854}
  m_Enabled: 1
  m_EditorHideFlags: 0
  m_Script: {fileID: 11500000, guid: 6452c9de93a49a14a84086ed13e3d8f0, type: 3}
  m_Name: 
  m_EditorClassIdentifier: 
  id: city1_hammer
  mergeWeapon: {fileID: 0}
  actualWeapon: {fileID: 6391108248454693030}
  distanceFromEnemy: 15
--- !u!1001 &7888878098854351040
PrefabInstance:
  m_ObjectHideFlags: 0
  serializedVersion: 2
  m_Modification:
    m_TransformParent: {fileID: 3906048948151827204}
    m_Modifications:
    - target: {fileID: 256830637962584693, guid: 03381fd5ada811e4cbd8fbb52c4c9aa3,
        type: 3}
      propertyPath: m_LocalPosition.x
      value: 0
      objectReference: {fileID: 0}
    - target: {fileID: 256830637962584693, guid: 03381fd5ada811e4cbd8fbb52c4c9aa3,
        type: 3}
      propertyPath: m_LocalPosition.y
      value: 0.33
      objectReference: {fileID: 0}
    - target: {fileID: 256830637962584693, guid: 03381fd5ada811e4cbd8fbb52c4c9aa3,
        type: 3}
      propertyPath: m_LocalPosition.z
      value: 0.16
      objectReference: {fileID: 0}
    - target: {fileID: 256830637962584693, guid: 03381fd5ada811e4cbd8fbb52c4c9aa3,
        type: 3}
      propertyPath: m_LocalRotation.x
      value: -0.5000003
      objectReference: {fileID: 0}
    - target: {fileID: 256830637962584693, guid: 03381fd5ada811e4cbd8fbb52c4c9aa3,
        type: 3}
      propertyPath: m_LocalRotation.y
      value: -0.49999985
      objectReference: {fileID: 0}
    - target: {fileID: 256830637962584693, guid: 03381fd5ada811e4cbd8fbb52c4c9aa3,
        type: 3}
      propertyPath: m_LocalRotation.z
      value: -0.49999973
      objectReference: {fileID: 0}
    - target: {fileID: 256830637962584693, guid: 03381fd5ada811e4cbd8fbb52c4c9aa3,
        type: 3}
      propertyPath: m_LocalRotation.w
      value: 0.50000024
      objectReference: {fileID: 0}
    - target: {fileID: 256830637962584693, guid: 03381fd5ada811e4cbd8fbb52c4c9aa3,
        type: 3}
      propertyPath: m_RootOrder
      value: 0
      objectReference: {fileID: 0}
    - target: {fileID: 256830637962584693, guid: 03381fd5ada811e4cbd8fbb52c4c9aa3,
        type: 3}
      propertyPath: m_LocalEulerAnglesHint.x
      value: -90.00001
      objectReference: {fileID: 0}
    - target: {fileID: 256830637962584693, guid: 03381fd5ada811e4cbd8fbb52c4c9aa3,
        type: 3}
      propertyPath: m_LocalEulerAnglesHint.y
      value: 0
      objectReference: {fileID: 0}
    - target: {fileID: 256830637962584693, guid: 03381fd5ada811e4cbd8fbb52c4c9aa3,
        type: 3}
      propertyPath: m_LocalEulerAnglesHint.z
      value: -90.00001
      objectReference: {fileID: 0}
    - target: {fileID: 3876240017859055718, guid: 03381fd5ada811e4cbd8fbb52c4c9aa3,
        type: 3}
      propertyPath: m_Name
      value: Hammer
      objectReference: {fileID: 0}
    m_RemovedComponents: []
  m_SourcePrefab: {fileID: 100100000, guid: 03381fd5ada811e4cbd8fbb52c4c9aa3, type: 3}
--- !u!1 &6391108248454693030 stripped
GameObject:
  m_CorrespondingSourceObject: {fileID: 3876240017859055718, guid: 03381fd5ada811e4cbd8fbb52c4c9aa3,
    type: 3}
  m_PrefabInstance: {fileID: 7888878098854351040}
  m_PrefabAsset: {fileID: 0}
--- !u!4 &7992375104000553653 stripped
Transform:
  m_CorrespondingSourceObject: {fileID: 256830637962584693, guid: 03381fd5ada811e4cbd8fbb52c4c9aa3,
    type: 3}
  m_PrefabInstance: {fileID: 7888878098854351040}
  m_PrefabAsset: {fileID: 0}
