[
    {
        "minimum": 1.0,
        "maximum" : 1.0,
        "step" : 10
    },
    {
        "minimum": 1.2,
        "maximum" : 1.2,
        "step" : 3
    },
    {
        "minimum": 1.5,
        "maximum" : 1.5,
        "step" : 2
    },
    {
        "minimum": 1.5,
        "maximum" : 1.5,
        "step" : 4
    },
    {
        "minimum": 1.5,
        "maximum" : 1.5,
        "step" : 5
    }
]