%YAML 1.1
%TAG !u! tag:unity3d.com,2011:
--- !u!114 &-7659070783993340797
MonoBehaviour:
  m_ObjectHideFlags: 11
  m_CorrespondingSourceObject: {fileID: 0}
  m_PrefabInstance: {fileID: 0}
  m_PrefabAsset: {fileID: 0}
  m_GameObject: {fileID: 0}
  m_Enabled: 1
  m_EditorHideFlags: 0
  m_Script: {fileID: 11500000, guid: d0353a89b1f911e48b9e16bdc9f2e058, type: 3}
  m_Name: 
  m_EditorClassIdentifier: 
  version: 2
--- !u!21 &2100000
Material:
  serializedVersion: 6
  m_ObjectHideFlags: 0
  m_CorrespondingSourceObject: {fileID: 0}
  m_PrefabInstance: {fileID: 0}
  m_PrefabAsset: {fileID: 0}
  m_Name: Car_15A_D
  m_Shader: {fileID: 4800000, guid: 37639dc9dfcb02e418de063aa605d992, type: 3}
  m_ShaderKeywords: CURVEDWORLD_BEND_ID_1 CURVEDWORLD_BEND_TYPE_CLASSICRUNNER_Z_POSITIVE
    _CELPRIMARYMODE_NONE _SPECULARHIGHLIGHTS_OFF _TEXTUREBLENDINGMODE_MULTIPLY _UNITYSHADOWMODE_NONE
  m_LightmapFlags: 4
  m_EnableInstancingVariants: 0
  m_DoubleSidedGI: 0
  m_CustomRenderQueue: 2000
  stringTagMap:
    RenderType: Opaque
  disabledShaderPasses: []
  m_SavedProperties:
    serializedVersion: 3
    m_TexEnvs:
    - _BaseMap:
        m_Texture: {fileID: 2800000, guid: 0d0805e3ab667479cae20d4841ed2ad7, type: 3}
        m_Scale: {x: 1, y: 1}
        m_Offset: {x: 0, y: 0}
    - _BumpMap:
        m_Texture: {fileID: 0}
        m_Scale: {x: 1, y: 1}
        m_Offset: {x: 0, y: 0}
    - _CelCurveTexture:
        m_Texture: {fileID: 0}
        m_Scale: {x: 1, y: 1}
        m_Offset: {x: 0, y: 0}
    - _CelStepTexture:
        m_Texture: {fileID: 0}
        m_Scale: {x: 1, y: 1}
        m_Offset: {x: 0, y: 0}
    - _DetailAlbedoMap:
        m_Texture: {fileID: 0}
        m_Scale: {x: 1, y: 1}
        m_Offset: {x: 0, y: 0}
    - _DetailMask:
        m_Texture: {fileID: 0}
        m_Scale: {x: 1, y: 1}
        m_Offset: {x: 0, y: 0}
    - _DetailNormalMap:
        m_Texture: {fileID: 0}
        m_Scale: {x: 1, y: 1}
        m_Offset: {x: 0, y: 0}
    - _EmissionMap:
        m_Texture: {fileID: 2800000, guid: 06ad5ed9e562f46de81c2a3a34e3ab83, type: 3}
        m_Scale: {x: 1, y: 1}
        m_Offset: {x: 0, y: 0}
    - _MainTex:
        m_Texture: {fileID: 2800000, guid: 0d0805e3ab667479cae20d4841ed2ad7, type: 3}
        m_Scale: {x: 1, y: 1}
        m_Offset: {x: 0, y: 0}
    - _MetallicGlossMap:
        m_Texture: {fileID: 0}
        m_Scale: {x: 1, y: 1}
        m_Offset: {x: 0, y: 0}
    - _OcclusionMap:
        m_Texture: {fileID: 0}
        m_Scale: {x: 1, y: 1}
        m_Offset: {x: 0, y: 0}
    - _ParallaxMap:
        m_Texture: {fileID: 0}
        m_Scale: {x: 1, y: 1}
        m_Offset: {x: 0, y: 0}
    - _Ramp:
        m_Texture: {fileID: 2800000, guid: 44fc7d4e30b4c4aefbe61769859d6dd2, type: 3}
        m_Scale: {x: 1, y: 1}
        m_Offset: {x: 0, y: 0}
    - _SpecGlossMap:
        m_Texture: {fileID: 0}
        m_Scale: {x: 1, y: 1}
        m_Offset: {x: 0, y: 0}
    m_Floats:
    - _AlphaClip: 0
    - _Blend: 0
    - _BumpScale: 1
    - _CelExtraEnabled: 0
    - _CelNumSteps: 3
    - _CelPrimaryMode: 0
    - _Cull: 2
    - _Cutoff: 0.57
    - _DetailNormalMapScale: 1
    - _DstBlend: 0
    - _EnvironmentReflections: 1
    - _FlatRimEdgeSmoothness: 0.5
    - _FlatRimLightAlign: 0
    - _FlatRimSize: 0.5
    - _FlatSpecularEdgeSmoothness: 0.544
    - _FlatSpecularSize: 0.758
    - _Flatness: 1
    - _FlatnessExtra: 1
    - _GlossMapScale: 1
    - _Glossiness: 0.31
    - _GlossinessSource: 0
    - _GlossyReflections: 1
    - _GradientAngle: 0
    - _GradientCenterX: 0
    - _GradientCenterY: 0
    - _GradientEnabled: 0
    - _GradientSize: 10
    - _LightContribution: 1
    - _LightFalloffSize: 0.0001
    - _LightmapDirectionPitch: 0
    - _LightmapDirectionYaw: 0
    - _Metallic: 0
    - _Mode: 3
    - _OcclusionStrength: 1
    - _Outline: 0.001
    - _OutlineDepthOffset: 0
    - _OutlineWidth: 0.01
    - _OverrideLightmapDir: 0
    - _Parallax: 0.02
    - _QueueOffset: 0
    - _ReceiveShadows: 0
    - _RimEnabled: 0
    - _SampleGI: 0
    - _SelfShadingSize: 0.5
    - _SelfShadingSizeExtra: 0.6
    - _ShadowEdgeSize: 0.05
    - _ShadowEdgeSizeExtra: 0.05
    - _Shininess: 0.267
    - _Smoothness: 0.267
    - _SmoothnessSource: 1
    - _SmoothnessTextureChannel: 0
    - _SpecSource: 0
    - _SpecularEnabled: 0
    - _SpecularHighlights: 0
    - _SrcBlend: 1
    - _Surface: 0
    - _TextureBlendingMode: 0
    - _TextureImpact: 1
    - _UVSec: 0
    - _UnityShadowMode: 0
    - _UnityShadowPower: 0.2
    - _UnityShadowSharpness: 1
    - _VertexColorsEnabled: 0
    - _WorkflowMode: 1
    - _ZWrite: 1
    m_Colors:
    - _BaseColor: {r: 1, g: 1, b: 1, a: 0.267}
    - _Color: {r: 0.5471698, g: 0.5471698, b: 0.5471698, a: 1}
    - _ColorDim: {r: 1, g: 1, b: 1, a: 1}
    - _ColorDimCurve: {r: 0.85023, g: 0.85034, b: 0.85045, a: 0.85056}
    - _ColorDimExtra: {r: 0.85023, g: 0.85034, b: 0.85045, a: 0.85056}
    - _ColorDimSteps: {r: 0.85023, g: 0.85034, b: 0.85045, a: 0.85056}
    - _ColorGradient: {r: 0.85023, g: 0.85034, b: 0.85045, a: 0.85056}
    - _CurvedWorldBendSettings: {r: 2, g: 1, b: 0, a: 0}
    - _EmissionColor: {r: 1, g: 1, b: 1, a: 1}
    - _FlatRimColor: {r: 0.85023, g: 0.85034, b: 0.85045, a: 0.85056}
    - _FlatSpecularColor: {r: 0.6320754, g: 0.6320754, b: 0.6320754, a: 1}
    - _LightmapDirection: {r: 0, g: 1, b: 0, a: 0}
    - _OutlineColor: {r: 0, g: 0, b: 0, a: 1}
    - _SpecColor: {r: 0.2, g: 0.2, b: 0.2, a: 0.267}
    - _UnityShadowColor: {r: 0.85023, g: 0.85034, b: 0.85045, a: 0.85056}
  m_BuildTextureStacks: []
