%YAML 1.1
%TAG !u! tag:unity3d.com,2011:
--- !u!74 &7400000
AnimationClip:
  m_ObjectHideFlags: 0
  m_CorrespondingSourceObject: {fileID: 0}
  m_PrefabInstance: {fileID: 0}
  m_PrefabAsset: {fileID: 0}
  m_Name: highscore_mid
  serializedVersion: 6
  m_Legacy: 0
  m_Compressed: 0
  m_UseHighQualityCurve: 1
  m_RotationCurves: []
  m_CompressedRotationCurves: []
  m_EulerCurves: []
  m_PositionCurves: []
  m_ScaleCurves: []
  m_FloatCurves: []
  m_PPtrCurves:
  - curve:
    - time: 0
      value: {fileID: -1859449314537294489, guid: b339c62032da09444b62ca6ab731fa0e,
        type: 3}
    - time: 0.016666668
      value: {fileID: 8828578888082441586, guid: b339c62032da09444b62ca6ab731fa0e,
        type: 3}
    - time: 0.033333335
      value: {fileID: -4678136375814426482, guid: b339c62032da09444b62ca6ab731fa0e,
        type: 3}
    - time: 0.05
      value: {fileID: -4459759880057450536, guid: b339c62032da09444b62ca6ab731fa0e,
        type: 3}
    - time: 0.06666667
      value: {fileID: -5899147652492997901, guid: b339c62032da09444b62ca6ab731fa0e,
        type: 3}
    - time: 0.083333336
      value: {fileID: 6907008340459313372, guid: b339c62032da09444b62ca6ab731fa0e,
        type: 3}
    - time: 0.1
      value: {fileID: 812264097453319741, guid: b339c62032da09444b62ca6ab731fa0e,
        type: 3}
    - time: 0.11666667
      value: {fileID: 2237272079146696048, guid: b339c62032da09444b62ca6ab731fa0e,
        type: 3}
    - time: 0.13333334
      value: {fileID: -3644719277949123293, guid: b339c62032da09444b62ca6ab731fa0e,
        type: 3}
    - time: 0.15
      value: {fileID: -493259663944597844, guid: b339c62032da09444b62ca6ab731fa0e,
        type: 3}
    - time: 0.16666667
      value: {fileID: -514832233822629183, guid: b339c62032da09444b62ca6ab731fa0e,
        type: 3}
    - time: 0.18333334
      value: {fileID: -7521906355126323456, guid: b339c62032da09444b62ca6ab731fa0e,
        type: 3}
    - time: 0.2
      value: {fileID: -7726102124359653993, guid: b339c62032da09444b62ca6ab731fa0e,
        type: 3}
    - time: 0.21666667
      value: {fileID: 2764763779600853980, guid: b339c62032da09444b62ca6ab731fa0e,
        type: 3}
    - time: 0.23333333
      value: {fileID: 9016859268639495839, guid: b339c62032da09444b62ca6ab731fa0e,
        type: 3}
    - time: 0.25
      value: {fileID: -9128379290392169657, guid: b339c62032da09444b62ca6ab731fa0e,
        type: 3}
    - time: 0.26666668
      value: {fileID: 5258437052623352680, guid: b339c62032da09444b62ca6ab731fa0e,
        type: 3}
    - time: 0.28333333
      value: {fileID: -3265926570470882474, guid: b339c62032da09444b62ca6ab731fa0e,
        type: 3}
    - time: 0.3
      value: {fileID: -3907651573188803709, guid: b339c62032da09444b62ca6ab731fa0e,
        type: 3}
    - time: 0.31666666
      value: {fileID: -2327117371354740691, guid: b339c62032da09444b62ca6ab731fa0e,
        type: 3}
    - time: 0.33333334
      value: {fileID: -9173269019896047702, guid: b339c62032da09444b62ca6ab731fa0e,
        type: 3}
    - time: 0.35
      value: {fileID: -7609645198775125626, guid: b339c62032da09444b62ca6ab731fa0e,
        type: 3}
    - time: 0.36666667
      value: {fileID: 5146199197206271717, guid: b339c62032da09444b62ca6ab731fa0e,
        type: 3}
    - time: 0.38333333
      value: {fileID: -2202916095069661744, guid: b339c62032da09444b62ca6ab731fa0e,
        type: 3}
    - time: 0.4
      value: {fileID: -5182864712172234680, guid: b339c62032da09444b62ca6ab731fa0e,
        type: 3}
    - time: 0.41666666
      value: {fileID: 1924573400182190568, guid: b339c62032da09444b62ca6ab731fa0e,
        type: 3}
    - time: 0.43333334
      value: {fileID: 6562043531550144324, guid: b339c62032da09444b62ca6ab731fa0e,
        type: 3}
    - time: 0.45
      value: {fileID: 3745014663684138902, guid: b339c62032da09444b62ca6ab731fa0e,
        type: 3}
    - time: 0.46666667
      value: {fileID: 3896125333939209197, guid: b339c62032da09444b62ca6ab731fa0e,
        type: 3}
    - time: 0.48333332
      value: {fileID: -7624965019475942107, guid: b339c62032da09444b62ca6ab731fa0e,
        type: 3}
    - time: 0.5
      value: {fileID: -9159035137160488827, guid: b339c62032da09444b62ca6ab731fa0e,
        type: 3}
    - time: 0.51666665
      value: {fileID: -4506991504610410662, guid: b339c62032da09444b62ca6ab731fa0e,
        type: 3}
    - time: 0.53333336
      value: {fileID: 6460961470600926752, guid: b339c62032da09444b62ca6ab731fa0e,
        type: 3}
    - time: 0.55
      value: {fileID: 7937381653469459697, guid: b339c62032da09444b62ca6ab731fa0e,
        type: 3}
    - time: 0.56666666
      value: {fileID: 4435012026898750988, guid: b339c62032da09444b62ca6ab731fa0e,
        type: 3}
    - time: 0.5833333
      value: {fileID: -390960707176074503, guid: b339c62032da09444b62ca6ab731fa0e,
        type: 3}
    - time: 0.6
      value: {fileID: -7128346003126233704, guid: b339c62032da09444b62ca6ab731fa0e,
        type: 3}
    - time: 0.6166667
      value: {fileID: -620819114998352399, guid: b339c62032da09444b62ca6ab731fa0e,
        type: 3}
    - time: 0.6333333
      value: {fileID: -5827745231423008064, guid: b339c62032da09444b62ca6ab731fa0e,
        type: 3}
    - time: 0.65
      value: {fileID: 3334818465346062507, guid: b339c62032da09444b62ca6ab731fa0e,
        type: 3}
    - time: 0.6666667
      value: {fileID: 3381450401217397413, guid: b339c62032da09444b62ca6ab731fa0e,
        type: 3}
    - time: 0.68333334
      value: {fileID: -8052750966961423929, guid: b339c62032da09444b62ca6ab731fa0e,
        type: 3}
    - time: 0.7
      value: {fileID: 8150566689091648409, guid: b339c62032da09444b62ca6ab731fa0e,
        type: 3}
    - time: 0.71666664
      value: {fileID: 4180182625513498794, guid: b339c62032da09444b62ca6ab731fa0e,
        type: 3}
    - time: 0.73333335
      value: {fileID: 8874917311452547085, guid: b339c62032da09444b62ca6ab731fa0e,
        type: 3}
    - time: 0.75
      value: {fileID: -5675942701310334340, guid: b339c62032da09444b62ca6ab731fa0e,
        type: 3}
    - time: 0.76666665
      value: {fileID: 7868235131317587874, guid: b339c62032da09444b62ca6ab731fa0e,
        type: 3}
    - time: 0.78333336
      value: {fileID: -4271518548948190743, guid: b339c62032da09444b62ca6ab731fa0e,
        type: 3}
    - time: 0.8
      value: {fileID: 2012119007758204459, guid: b339c62032da09444b62ca6ab731fa0e,
        type: 3}
    - time: 0.81666666
      value: {fileID: 2413209665302360193, guid: b339c62032da09444b62ca6ab731fa0e,
        type: 3}
    - time: 0.8333333
      value: {fileID: 646128948636176039, guid: b339c62032da09444b62ca6ab731fa0e,
        type: 3}
    - time: 0.85
      value: {fileID: 479359135811521871, guid: b339c62032da09444b62ca6ab731fa0e,
        type: 3}
    - time: 0.8666667
      value: {fileID: -9132133179874708960, guid: b339c62032da09444b62ca6ab731fa0e,
        type: 3}
    - time: 0.8833333
      value: {fileID: 6725388178990301547, guid: b339c62032da09444b62ca6ab731fa0e,
        type: 3}
    - time: 0.9
      value: {fileID: -4651149348869688987, guid: b339c62032da09444b62ca6ab731fa0e,
        type: 3}
    - time: 0.9166667
      value: {fileID: -5108167078302276002, guid: b339c62032da09444b62ca6ab731fa0e,
        type: 3}
    - time: 0.93333334
      value: {fileID: 3277630113860585723, guid: b339c62032da09444b62ca6ab731fa0e,
        type: 3}
    - time: 0.95
      value: {fileID: -2983000121009407645, guid: b339c62032da09444b62ca6ab731fa0e,
        type: 3}
    - time: 0.96666664
      value: {fileID: 1687945393215476485, guid: b339c62032da09444b62ca6ab731fa0e,
        type: 3}
    - time: 0.98333335
      value: {fileID: 306162933995491714, guid: b339c62032da09444b62ca6ab731fa0e,
        type: 3}
    - time: 1
      value: {fileID: 1165472891621059410, guid: b339c62032da09444b62ca6ab731fa0e,
        type: 3}
    - time: 1.0166667
      value: {fileID: -6413204516177592354, guid: b339c62032da09444b62ca6ab731fa0e,
        type: 3}
    - time: 1.0333333
      value: {fileID: -2598693468103663410, guid: b339c62032da09444b62ca6ab731fa0e,
        type: 3}
    attribute: m_Sprite
    path: 
    classID: 212
    script: {fileID: 0}
  m_SampleRate: 60
  m_WrapMode: 0
  m_Bounds:
    m_Center: {x: 0, y: 0, z: 0}
    m_Extent: {x: 0, y: 0, z: 0}
  m_ClipBindingConstant:
    genericBindings:
    - serializedVersion: 2
      path: 0
      attribute: 0
      script: {fileID: 0}
      typeID: 212
      customType: 23
      isPPtrCurve: 1
    pptrCurveMapping:
    - {fileID: -1859449314537294489, guid: b339c62032da09444b62ca6ab731fa0e, type: 3}
    - {fileID: 8828578888082441586, guid: b339c62032da09444b62ca6ab731fa0e, type: 3}
    - {fileID: -4678136375814426482, guid: b339c62032da09444b62ca6ab731fa0e, type: 3}
    - {fileID: -4459759880057450536, guid: b339c62032da09444b62ca6ab731fa0e, type: 3}
    - {fileID: -5899147652492997901, guid: b339c62032da09444b62ca6ab731fa0e, type: 3}
    - {fileID: 6907008340459313372, guid: b339c62032da09444b62ca6ab731fa0e, type: 3}
    - {fileID: 812264097453319741, guid: b339c62032da09444b62ca6ab731fa0e, type: 3}
    - {fileID: 2237272079146696048, guid: b339c62032da09444b62ca6ab731fa0e, type: 3}
    - {fileID: -3644719277949123293, guid: b339c62032da09444b62ca6ab731fa0e, type: 3}
    - {fileID: -493259663944597844, guid: b339c62032da09444b62ca6ab731fa0e, type: 3}
    - {fileID: -514832233822629183, guid: b339c62032da09444b62ca6ab731fa0e, type: 3}
    - {fileID: -7521906355126323456, guid: b339c62032da09444b62ca6ab731fa0e, type: 3}
    - {fileID: -7726102124359653993, guid: b339c62032da09444b62ca6ab731fa0e, type: 3}
    - {fileID: 2764763779600853980, guid: b339c62032da09444b62ca6ab731fa0e, type: 3}
    - {fileID: 9016859268639495839, guid: b339c62032da09444b62ca6ab731fa0e, type: 3}
    - {fileID: -9128379290392169657, guid: b339c62032da09444b62ca6ab731fa0e, type: 3}
    - {fileID: 5258437052623352680, guid: b339c62032da09444b62ca6ab731fa0e, type: 3}
    - {fileID: -3265926570470882474, guid: b339c62032da09444b62ca6ab731fa0e, type: 3}
    - {fileID: -3907651573188803709, guid: b339c62032da09444b62ca6ab731fa0e, type: 3}
    - {fileID: -2327117371354740691, guid: b339c62032da09444b62ca6ab731fa0e, type: 3}
    - {fileID: -9173269019896047702, guid: b339c62032da09444b62ca6ab731fa0e, type: 3}
    - {fileID: -7609645198775125626, guid: b339c62032da09444b62ca6ab731fa0e, type: 3}
    - {fileID: 5146199197206271717, guid: b339c62032da09444b62ca6ab731fa0e, type: 3}
    - {fileID: -2202916095069661744, guid: b339c62032da09444b62ca6ab731fa0e, type: 3}
    - {fileID: -5182864712172234680, guid: b339c62032da09444b62ca6ab731fa0e, type: 3}
    - {fileID: 1924573400182190568, guid: b339c62032da09444b62ca6ab731fa0e, type: 3}
    - {fileID: 6562043531550144324, guid: b339c62032da09444b62ca6ab731fa0e, type: 3}
    - {fileID: 3745014663684138902, guid: b339c62032da09444b62ca6ab731fa0e, type: 3}
    - {fileID: 3896125333939209197, guid: b339c62032da09444b62ca6ab731fa0e, type: 3}
    - {fileID: -7624965019475942107, guid: b339c62032da09444b62ca6ab731fa0e, type: 3}
    - {fileID: -9159035137160488827, guid: b339c62032da09444b62ca6ab731fa0e, type: 3}
    - {fileID: -4506991504610410662, guid: b339c62032da09444b62ca6ab731fa0e, type: 3}
    - {fileID: 6460961470600926752, guid: b339c62032da09444b62ca6ab731fa0e, type: 3}
    - {fileID: 7937381653469459697, guid: b339c62032da09444b62ca6ab731fa0e, type: 3}
    - {fileID: 4435012026898750988, guid: b339c62032da09444b62ca6ab731fa0e, type: 3}
    - {fileID: -390960707176074503, guid: b339c62032da09444b62ca6ab731fa0e, type: 3}
    - {fileID: -7128346003126233704, guid: b339c62032da09444b62ca6ab731fa0e, type: 3}
    - {fileID: -620819114998352399, guid: b339c62032da09444b62ca6ab731fa0e, type: 3}
    - {fileID: -5827745231423008064, guid: b339c62032da09444b62ca6ab731fa0e, type: 3}
    - {fileID: 3334818465346062507, guid: b339c62032da09444b62ca6ab731fa0e, type: 3}
    - {fileID: 3381450401217397413, guid: b339c62032da09444b62ca6ab731fa0e, type: 3}
    - {fileID: -8052750966961423929, guid: b339c62032da09444b62ca6ab731fa0e, type: 3}
    - {fileID: 8150566689091648409, guid: b339c62032da09444b62ca6ab731fa0e, type: 3}
    - {fileID: 4180182625513498794, guid: b339c62032da09444b62ca6ab731fa0e, type: 3}
    - {fileID: 8874917311452547085, guid: b339c62032da09444b62ca6ab731fa0e, type: 3}
    - {fileID: -5675942701310334340, guid: b339c62032da09444b62ca6ab731fa0e, type: 3}
    - {fileID: 7868235131317587874, guid: b339c62032da09444b62ca6ab731fa0e, type: 3}
    - {fileID: -4271518548948190743, guid: b339c62032da09444b62ca6ab731fa0e, type: 3}
    - {fileID: 2012119007758204459, guid: b339c62032da09444b62ca6ab731fa0e, type: 3}
    - {fileID: 2413209665302360193, guid: b339c62032da09444b62ca6ab731fa0e, type: 3}
    - {fileID: 646128948636176039, guid: b339c62032da09444b62ca6ab731fa0e, type: 3}
    - {fileID: 479359135811521871, guid: b339c62032da09444b62ca6ab731fa0e, type: 3}
    - {fileID: -9132133179874708960, guid: b339c62032da09444b62ca6ab731fa0e, type: 3}
    - {fileID: 6725388178990301547, guid: b339c62032da09444b62ca6ab731fa0e, type: 3}
    - {fileID: -4651149348869688987, guid: b339c62032da09444b62ca6ab731fa0e, type: 3}
    - {fileID: -5108167078302276002, guid: b339c62032da09444b62ca6ab731fa0e, type: 3}
    - {fileID: 3277630113860585723, guid: b339c62032da09444b62ca6ab731fa0e, type: 3}
    - {fileID: -2983000121009407645, guid: b339c62032da09444b62ca6ab731fa0e, type: 3}
    - {fileID: 1687945393215476485, guid: b339c62032da09444b62ca6ab731fa0e, type: 3}
    - {fileID: 306162933995491714, guid: b339c62032da09444b62ca6ab731fa0e, type: 3}
    - {fileID: 1165472891621059410, guid: b339c62032da09444b62ca6ab731fa0e, type: 3}
    - {fileID: -6413204516177592354, guid: b339c62032da09444b62ca6ab731fa0e, type: 3}
    - {fileID: -2598693468103663410, guid: b339c62032da09444b62ca6ab731fa0e, type: 3}
  m_AnimationClipSettings:
    serializedVersion: 2
    m_AdditiveReferencePoseClip: {fileID: 0}
    m_AdditiveReferencePoseTime: 0
    m_StartTime: 0
    m_StopTime: 1.05
    m_OrientationOffsetY: 0
    m_Level: 0
    m_CycleOffset: 0
    m_HasAdditiveReferencePose: 0
    m_LoopTime: 1
    m_LoopBlend: 0
    m_LoopBlendOrientation: 0
    m_LoopBlendPositionY: 0
    m_LoopBlendPositionXZ: 0
    m_KeepOriginalOrientation: 0
    m_KeepOriginalPositionY: 1
    m_KeepOriginalPositionXZ: 0
    m_HeightFromFeet: 0
    m_Mirror: 0
  m_EditorCurves: []
  m_EulerEditorCurves: []
  m_HasGenericRootTransform: 0
  m_HasMotionFloatCurves: 0
  m_Events: []
