{
    "id": "city1_5",
    "next_id": "city1_6",
    "assignment_number": 5,
    "objectives":
    [
        {
            "id": "city1_5_1",
            "type": "KILL",
            "condition" :
            [
                {
                    "type": "WEAPON"
                }
            ],
            
            "single_session": false,
            "count": 3,
            "description": "Arrest {0} criminals with weapon attachment.",
            "skip_cost": 1000
        },
        {
            "id": "city1_5_2",
            "type": "SCORE",
            "count": 1,
            "condition":
            [
                {
                    "type": "SCORE",
                    "min_required_value": 200000
                }
            ],
            "single_session": true,
            "description": "Get score of 200,000 in single run",
            "skip_cost": 1000
        },
        {
            "id": "city1_5_3",
            "type": "NEAR_MISS",
            "condition" :
            [
                {
                    "type": "VEHICLE",
                    "vehicle": "TAXI"
                }
            ],
            "count": 15,
            "single_session": false,
            "description": "Over take {0} taxis",
            "skip_cost": 1000
        }
    ],
    "reward":
    {
        "reason": "MISSION_COMPLETION",
        "reward_chance":
        [
            {
                "type": "weapon_token",
                "minimum_amount": 1,
                "maximum_amount" : 2,
                "chance": 0.4
            },
            {
                "type": "air_strike",
                "minimum_amount": 1,
                "maximum_amount" : 2,
                "chance": 0.4
            },
            {
                "type": "bag_coins",
                "minimum_amount": 600,
                "maximum_amount" : 1500,
                "multiple": 100,
                "chance": 1.0
            },
            {
                "type": "combo_increment",
                "minimum_amount": 1,
                "maximum_amount" : 1,
                "chance": 1.0
            }
        ]
    }
}