%YAML 1.1
%TAG !u! tag:unity3d.com,2011:
--- !u!21 &2100000
Material:
  serializedVersion: 6
  m_ObjectHideFlags: 0
  m_CorrespondingSourceObject: {fileID: 0}
  m_PrefabInstance: {fileID: 0}
  m_PrefabAsset: {fileID: 0}
  m_Name: Building_3A_D
  m_Shader: {fileID: 4800000, guid: e9ef6a2e182f596438c0505d00d4a2f1, type: 3}
  m_ShaderKeywords: CURVEDWORLD_BEND_ID_1 CURVEDWORLD_BEND_TYPE_CLASSICRUNNER_Z_POSITIVE
    _EMISSION
  m_LightmapFlags: 1
  m_EnableInstancingVariants: 1
  m_DoubleSidedGI: 0
  m_CustomRenderQueue: 2000
  stringTagMap:
    RenderType: Opaque
  disabledShaderPasses: []
  m_SavedProperties:
    serializedVersion: 3
    m_TexEnvs:
    - _BaseMap:
        m_Texture: {fileID: 2800000, guid: 87559e9d0383c453494518309b899905, type: 3}
        m_Scale: {x: 1, y: 1}
        m_Offset: {x: 0, y: 0}
    - _BumpMap:
        m_Texture: {fileID: 0}
        m_Scale: {x: 1, y: 1}
        m_Offset: {x: 0, y: 0}
    - _CelCurveTexture:
        m_Texture: {fileID: 0}
        m_Scale: {x: 1, y: 1}
        m_Offset: {x: 0, y: 0}
    - _CelStepTexture:
        m_Texture: {fileID: 0}
        m_Scale: {x: 1, y: 1}
        m_Offset: {x: 0, y: 0}
    - _DetailAlbedoMap:
        m_Texture: {fileID: 0}
        m_Scale: {x: 1, y: 1}
        m_Offset: {x: 0, y: 0}
    - _DetailMask:
        m_Texture: {fileID: 0}
        m_Scale: {x: 1, y: 1}
        m_Offset: {x: 0, y: 0}
    - _DetailNormalMap:
        m_Texture: {fileID: 0}
        m_Scale: {x: 1, y: 1}
        m_Offset: {x: 0, y: 0}
    - _EmissionMap:
        m_Texture: {fileID: 0}
        m_Scale: {x: 1, y: 1}
        m_Offset: {x: 0, y: 0}
    - _MainTex:
        m_Texture: {fileID: 2800000, guid: 87559e9d0383c453494518309b899905, type: 3}
        m_Scale: {x: 1, y: 1}
        m_Offset: {x: 0, y: 0}
    - _MetallicGlossMap:
        m_Texture: {fileID: 0}
        m_Scale: {x: 1, y: 1}
        m_Offset: {x: 0, y: 0}
    - _OcclusionMap:
        m_Texture: {fileID: 0}
        m_Scale: {x: 1, y: 1}
        m_Offset: {x: 0, y: 0}
    - _ParallaxMap:
        m_Texture: {fileID: 0}
        m_Scale: {x: 1, y: 1}
        m_Offset: {x: 0, y: 0}
    - _Ramp:
        m_Texture: {fileID: 2800000, guid: 7abf28097a949494888527a7e1eccbc5, type: 3}
        m_Scale: {x: 1, y: 1}
        m_Offset: {x: 0, y: 0}
    m_Floats:
    - _AlphaClip: 0
    - _Blend: 0
    - _BumpScale: 1
    - _CelExtraEnabled: 0
    - _CelNumSteps: 3
    - _CelPrimaryMode: 0
    - _Cull: 2
    - _Cutoff: 0.5
    - _DetailNormalMapScale: 1
    - _DstBlend: 0
    - _FlatRimEdgeSmoothness: 0.5
    - _FlatRimLightAlign: 0
    - _FlatRimSize: 0.5
    - _FlatSpecularEdgeSmoothness: 0
    - _FlatSpecularSize: 0.1
    - _Flatness: 1
    - _FlatnessExtra: 1
    - _GlossMapScale: 1
    - _Glossiness: 0.5
    - _GlossyReflections: 1
    - _GradientAngle: 0
    - _GradientCenterX: 0
    - _GradientCenterY: 0
    - _GradientEnabled: 0
    - _GradientSize: 10
    - _LightContribution: 0
    - _Metallic: 0
    - _Mode: 0
    - _OcclusionStrength: 1
    - _Outline: 0.001
    - _Parallax: 0.02
    - _QueueOffset: 0
    - _RimEnabled: 0
    - _SampleGI: 0
    - _SelfShadingSize: 0.5
    - _SelfShadingSizeExtra: 0.6
    - _ShadowEdgeSize: 0.05
    - _ShadowEdgeSizeExtra: 0.05
    - _SmoothnessTextureChannel: 0
    - _SpecularEnabled: 0
    - _SpecularHighlights: 1
    - _SrcBlend: 1
    - _Surface: 0
    - _TextureBlendingMode: 0
    - _TextureImpact: 1
    - _UVSec: 0
    - _UnityShadowMode: 0
    - _UnityShadowPower: 0.2
    - _UnityShadowSharpness: 1
    - _VertexColorsEnabled: 0
    - _ZWrite: 1
    m_Colors:
    - _BaseColor: {r: 0.3773585, g: 0.3773585, b: 0.3773585, a: 1}
    - _Color: {r: 1, g: 1, b: 1, a: 1}
    - _ColorDim: {r: 0.6509804, g: 0.6509804, b: 0.6509804, a: 1}
    - _ColorDimCurve: {r: 0.85023, g: 0.85034, b: 0.85045, a: 0.85056}
    - _ColorDimExtra: {r: 0.85023, g: 0.85034, b: 0.85045, a: 0.85056}
    - _ColorDimSteps: {r: 0.85023, g: 0.85034, b: 0.85045, a: 0.85056}
    - _ColorGradient: {r: 0.85023, g: 0.85034, b: 0.85045, a: 0.85056}
    - _CurvedWorldBendSettings: {r: 2, g: 1, b: 0, a: 0}
    - _EmissionColor: {r: 0, g: 0, b: 0, a: 1}
    - _FlatRimColor: {r: 0.85023, g: 0.85034, b: 0.85045, a: 0.85056}
    - _FlatSpecularColor: {r: 0.85023, g: 0.85034, b: 0.85045, a: 0.85056}
    - _OutlineColor: {r: 0, g: 0, b: 0, a: 1}
    - _UnityShadowColor: {r: 0.85023, g: 0.85034, b: 0.85045, a: 0.85056}
  m_BuildTextureStacks: []
