[
    {
        "Id": "AIR_STRIKE",
        "collectibleType": "AIR_STRIKE",
        "Cost": 350,
        "currency": "COIN",
        "item_type": "POWERUP",
        "name": "Air Support",
        "description": "Call air support and enjoy the show"
    }
]