[
    {
        "Id": "city1_boxglove",
        "Cost": 2,
        "currency": "WEAPON_TOKEN",
        "unlock_mission": 0,
        "item_type": "WEAPON",
        "description": "Enemy damage is increased by 1"
    },
    {
        "Id": "city1_hammer",
        "Cost": 5,
        "currency": "WEAPON_TOKEN",
        "unlock_mission": 0,
        "item_type": "WEAPON",
        "description": "Enemy damage is increased by 1"
    },
    {
        "Id": "city1_horns",
        "Cost": 5,
        "currency": "WEAPON_TOKEN",
        "unlock_mission": 0,
        "item_type": "WEAPON",
        "description": "Enemy damage is increased by 1"
    },
    {
        "Id": "city1_flyswatter",
        "Cost": 9,
        "currency": "WEAPON_TOKEN",
        "unlock_mission": 0,
        "item_type": "WEAPON",
        "description": "Enemy damage is increased by 1"
    },
    {
        "Id": "city1_broomstick",
        "Cost": 9,
        "currency": "WEAPON_TOKEN",
        "unlock_mission": 0,
        "item_type": "WEAPON",
        "description": "Enemy damage is increased by 1"
    },
    {
        "Id": "city1_guitar",
        "Cost": 9,
        "currency": "WEAPON_TOKEN",
        "unlock_mission": 0,
        "item_type": "WEAPON",
        "description": "Enemy damage is increased by 1"
    },
    {
        "Id": "city1_spikeclub",
        "Cost": 15,
        "currency": "WEAPON_TOKEN",
        "unlock_mission": 0,
        "item_type": "WEAPON",
        "description": "Enemy damage is increased by 1"
    },
    {
        "Id": "city1_antlers",
        "Cost": 15,
        "currency": "WEAPON_TOKEN",
        "unlock_mission": 0,
        "item_type": "WEAPON",
        "description": "Enemy damage is increased by 1"
    },
    {
        "Id": "city1_wreckingball",
        "Cost": 20,
        "currency": "WEAPON_TOKEN",
        "unlock_mission": 0,
        "item_type": "WEAPON",
        "description": "Enemy damage is increased by 1"
    }
]