[
    {
        "Id": "city1_mini",
        "Cost": 0,
        "unlock_mission": 0,
        "next_item_id": "city1_mini_2",
        "name": "Kapow",
        "item_type": "CAR",
        "skins":[
            {
                "Id" : "city1_mini_skin_default",
                "ads_unlockable": false,
                "Cost": 0,
                "item_type": "SKIN"
            },
            {
                "Id" : "city1_mini_skin1",
                "ads_unlockable": false,
                "Cost": 300
            },
            {
                "Id" : "city1_mini_skin2",
                "ads_unlockable": false,
                "Cost": 300
            }
        ]
    },
    {
        "Id": "city1_mini_2",
        "Cost": 5000,
        "unlock_mission": 0,
        "next_item_id": "city1_mini_3",
        "previous_item_id": "city1_mini",
        "name": "Burner",
        "item_type": "CAR",
        "skins":[
            {
                "Id" : "city1_mini_2_skin_default",
                "ads_unlockable": false,
                "Cost": 0,
                "item_type": "SKIN"
            },
            {
                "Id" : "city1_mini_2_skin1",
                "ads_unlockable": false,
                "Cost": 300
            }
        ]
    },
    {
        "Id": "city1_mini_3",
        "Cost": 5000,
        "unlock_mission": 0,
        "next_item_id": "city1_sedan",
        "previous_item_id": "city1_mini_2",
        "name": "Zinzer",
        "item_type": "CAR",
        "skins":[
            {
                "Id" : "city1_mini_3_skin_default",
                "ads_unlockable": false,
                "Cost": 0,
                "item_type": "SKIN"
            },
            {
                "Id" : "city1_mini_3_skin1",
                "ads_unlockable": false,
                "Cost": 300
            },
            {
                "Id" : "city1_mini_3_skin2",
                "ads_unlockable": false,
                "Cost": 300
            }
        ]
    },
    {
        "Id": "city1_sedan",
        "Cost": 15000,
        "unlock_mission": 0,
        "next_item_id": "city1_sedan_2",
        "previous_item_id": "city1_mini_3",
        "is_content_locked": false,
        "name": "Bandit",
        "item_type": "CAR",
        "skins":[
            {
                "Id" : "city1_sedan_skin_default",
                "ads_unlockable": false,
                "Cost": 0,
                "item_type": "SKIN"
            },
            {
                "Id" : "city1_sedan_skin1",
                "ads_unlockable": false,
                "Cost": 300
            }
        ]
    },
    {
        "Id": "city1_sedan_2",
        "Cost": 15000,
        "unlock_mission": 0,
        "next_item_id": "city1_sedan_3",
        "previous_item_id": "city1_sedan",
        "is_content_locked": false,
        "name": "Death Wish",
        "item_type": "CAR",
        "skins":[
            {
                "Id" : "city1_sedan_2_skin_default",
                "ads_unlockable": false,
                "Cost": 0,
                "item_type": "SKIN"
            },
            {
                "Id" : "city1_sedan_2_skin1",
                "ads_unlockable": false,
                "Cost": 300
            },
            {
                "Id" : "city1_sedan_2_skin2",
                "ads_unlockable": false,
                "Cost": 300
            }
        ]
    },
    {
        "Id": "city1_sedan_3",
        "Cost": 18000,
        "unlock_mission": 0,
        "next_item_id": "city1_suv",
        "previous_item_id": "city1_sedan_2",
        "is_content_locked": false,
        "name": "Screecher",
        "item_type": "CAR",
        "skins":[
            {
                "Id" : "city1_sedan_3_skin_default",
                "ads_unlockable": false,
                "Cost": 0,
                "item_type": "SKIN"
            },
            {
                "Id" : "city1_sedan_3_skin1",
                "ads_unlockable": false,
                "Cost": 300
            },
            {
                "Id" : "city1_sedan_3_skin2",
                "ads_unlockable": false,
                "Cost": 300
            }
        ]
    },
    {
        "Id": "city1_suv",
        "Cost": 22000,
        "unlock_mission": 0,
        "previous_item_id": "city1_sedan_3",
        "next_item_id": "city1_suv_2",
        "is_content_locked": false,
        "name": "Bigfoot",
        "item_type": "CAR",
        "skins":[
            {
                "Id" : "city1_suv_skin_default",
                "ads_unlockable": false,
                "Cost": 0,
                "item_type": "SKIN"
            },
            {
                "Id" : "city1_suv_skin1",
                "ads_unlockable": false,
                "Cost": 300
            },
            {
                "Id" : "city1_suv_skin2",
                "ads_unlockable": false,
                "Cost": 300
            }
        ]
    },
    {
        "Id": "city1_suv_2",
        "Cost": 22000,
        "unlock_mission": 0,
        "previous_item_id": "city1_suv",
        "is_content_locked": false,
        "name": "Zeus",
        "item_type": "CAR",
        "skins":[
            {
                "Id" : "city1_suv_2_skin_default",
                "ads_unlockable": false,
                "Cost": 0,
                "item_type": "SKIN"
            },
            {
                "Id" : "city1_suv_2_skin1",
                "ads_unlockable": false,
                "Cost": 300
            },
            {
                "Id" : "city1_suv_2_skin2",
                "ads_unlockable": false,
                "Cost": 300
            }
        ]
    }
]